[
    "Mantanoid; 10.tmx: (264,96)->(280,32)!action_approach~action_lock -- pass", 
    "Mantanoid; 10.tmx: (480,96)->(None,176)!action_approach~action_lock -- fail", 
    "Mantanoid; 10.tmx: (504,96)->(None,176)!action_approach~action_lock -- fail", 
    "Mantanoid; 10.tmx: (512,96)->(None,144)!action_approach~action_lock -- fail", 
    "Mantanoid; 10.tmx: (536,96)->(None,168)!action_approach~action_lock -- fail", 
    "Mantanoid; 10.tmx: (552,96)->(None,176)!action_approach~action_lock -- pass", 
    "Mantanoid; 10.tmx: (712,160)->(800,104)!action_approach~action_lock -- pass", 
    "Mantanoid; 10.tmx: (736,160)->(728,96)!action_approach~action_lock -- fail", 
    "Mantanoid; 10.tmx: (736,160)->(848,104)!action_approach~action_lock -- pass", 
    "Mantanoid; 10.tmx: (848,160)->(712,112)!action_approach~action_lock -- pass", 
    "Mantanoid; 10.tmx: (864,160)->(936,88)!action_approach~action_lock -- pass", 
    "Mantanoid; 23.tmx: (104,848)->(None,776)!action_approach~action_lock -- fail", 
    "Mantanoid; 23.tmx: (112,848)->(None,776)!action_approach~action_lock -- fail", 
    "Mantanoid; 23.tmx: (128,848)->(None,776)!action_approach~action_lock -- fail", 
    "Mantanoid; 23.tmx: (152,848)->(None,776)!action_approach~action_lock -- fail", 
    "Mantanoid; 23.tmx: (176,848)->(152,776)!action_approach~action_lock -- pass", 
    "Mantanoid; 23.tmx: (176,848)->(64,776)!action_approach~action_lock -- pass", 
    "Mantanoid; 23.tmx: (216,848)->(184,792)!action_approach~action_lock -- pass", 
    "Mantanoid; 23.tmx: (240,848)->(96,776)!action_approach~action_lock -- pass", 
    "Mantanoid; 23.tmx: (280,848)->(None,792)!action_approach~action_lock -- fail", 
    "Mantanoid; 23.tmx: (304,848)->(280,776)!action_approach~action_lock -- pass", 
    "Mantanoid; 23.tmx: (304,848)->(296,792)!action_approach~action_lock -- fail", 
    "Mantanoid; 23.tmx: (304,848)->(None,792)!action_approach~action_lock -- fail", 
    "Mantanoid; 23.tmx: (328,848)->(None,792)!action_approach~action_lock -- fail", 
    "Mantanoid; 23.tmx: (352,848)->(None,792)!action_approach~action_lock -- fail", 
    "Mantanoid; 23.tmx: (376,848)->(None,776)!action_approach~action_lock -- fail", 
    "Mantanoid; 23.tmx: (384,848)->(None,776)!action_approach~action_lock -- fail", 
    "Mantanoid; 23.tmx: (400,840)->(128,792)!action_approach~action_lock -- pass", 
    "Mantanoid; 23.tmx: (400,848)->(None,776)!action_approach~action_lock -- fail", 
    "Mantanoid; 23.tmx: (400,848)->(None,784)!action_approach~action_lock -- fail", 
    "Mantanoid; 23.tmx: (400,848)->(None,792)!action_approach~action_lock -- fail", 
    "Mantanoid; 23.tmx: (408,848)->(None,776)!action_approach~action_lock -- fail", 
    "Mantanoid; 23.tmx: (424,840)->(176,776)!action_approach~action_lock -- pass", 
    "Mantanoid; 23.tmx: (424,848)->(None,776)!action_approach~action_lock -- fail", 
    "Mantanoid; 23.tmx: (424,848)->(None,776)!action_jump~stop_down -- pass", 
    "Mantanoid; 23.tmx: (432,848)->(None,776)!action_approach~action_lock -- pass", 
    "Mantanoid; 23.tmx: (448,848)->(None,776)!action_approach~action_lock -- pass", 
    "Mantanoid; 23.tmx: (456,840)->(528,784)!action_approach~action_lock -- pass", 
    "Mantanoid; 23.tmx: (456,840)->(None,776)!action_approach~action_lock -- pass", 
    "Mantanoid; 23.tmx: (464,840)->(None,776)!action_approach~action_lock -- pass", 
    "Mantanoid; 23.tmx: (472,832)->(None,776)!action_approach~action_lock -- pass", 
    "Mantanoid; 23.tmx: (480,832)->(None,776)!action_approach~action_lock -- pass", 
    "Mantanoid; 23.tmx: (488,824)->(776,736)!action_approach~action_lock -- pass", 
    "Mantanoid; 23.tmx: (536,792)->(None,856)!action_approach~action_lock -- pass", 
    "Mantanoid; 23.tmx: (544,792)->(None,856)!action_approach~action_lock -- pass", 
    "Mantanoid; 23.tmx: (552,784)->(None,856)!action_approach~action_lock -- pass", 
    "Mantanoid; 23.tmx: (552,792)->(None,856)!action_approach~action_lock -- pass", 
    "Mantanoid; 23.tmx: (560,784)->(None,856)!action_approach~action_lock -- pass", 
    "Mantanoid; 23.tmx: (568,776)->(None,840)!action_approach~action_lock -- pass", 
    "Mantanoid; 23.tmx: (576,776)->(None,856)!action_approach~action_lock -- pass", 
    "Mantanoid; 23.tmx: (576,784)->(None,856)!action_approach~action_lock -- pass", 
    "Mantanoid; 23.tmx: (584,776)->(None,856)!action_approach~action_lock -- pass", 
    "Mantanoid; 23.tmx: (592,768)->(None,824)!action_approach~action_lock -- pass", 
    "Mantanoid; 23.tmx: (592,768)->(None,856)!action_approach~action_lock -- pass", 
    "Mantanoid; 23.tmx: (592,776)->(432,832)!action_approach~action_lock -- pass", 
    "Mantanoid; 23.tmx: (592,776)->(None,856)!action_approach~action_lock -- pass", 
    "Mantanoid; 23.tmx: (600,768)->(None,840)!action_approach~action_lock -- pass", 
    "Mantanoid; 23.tmx: (600,768)->(None,856)!action_approach~action_lock -- pass", 
    "Mantanoid; 23.tmx: (608,768)->(None,856)!action_approach~action_lock -- pass", 
    "Mantanoid; 23.tmx: (616,768)->(None,824)!action_approach~action_lock -- fail", 
    "Mantanoid; 23.tmx: (616,768)->(None,856)!action_approach~action_lock -- fail", 
    "Mantanoid; 23.tmx: (624,768)->(None,840)!action_approach~action_lock -- fail", 
    "Mantanoid; 23.tmx: (624,768)->(None,856)!action_approach~action_lock -- fail", 
    "Mantanoid; 23.tmx: (624,768)->(None,856)!action_jump~stop_down -- fail", 
    "Mantanoid; 23.tmx: (640,768)->(None,856)!action_approach~action_lock -- fail", 
    "Mantanoid; 23.tmx: (648,768)->(440,856)!action_approach~action_lock -- pass", 
    "Mantanoid; 23.tmx: (648,768)->(None,816)!action_approach~action_lock -- fail", 
    "Mantanoid; 23.tmx: (648,768)->(None,856)!action_approach~action_lock -- fail", 
    "Mantanoid; 23.tmx: (648,768)->(None,856)!action_hop~stop_down -- fail", 
    "Mantanoid; 23.tmx: (648,768)->(None,856)!action_jump~stop_down -- fail", 
    "Mantanoid; 23.tmx: (664,768)->(None,856)!action_approach~action_lock -- fail", 
    "Mantanoid; 23.tmx: (672,768)->(None,856)!action_approach~action_lock -- fail", 
    "Mantanoid; 23.tmx: (688,768)->(None,848)!action_approach~action_lock -- fail", 
    "Mantanoid; 23.tmx: (696,768)->(None,840)!action_approach~action_lock -- fail", 
    "Mantanoid; 23.tmx: (712,768)->(None,824)!action_approach~action_lock -- fail", 
    "Mantanoid; 23.tmx: (72,848)->(16,776)!action_approach~action_lock -- fail", 
    "Mantanoid; 23.tmx: (72,848)->(16,776)!action_hop~stop_down -- fail", 
    "Mantanoid; 23.tmx: (72,848)->(24,776)!action_approach~action_lock -- fail", 
    "Mantanoid; 23.tmx: (72,848)->(24,776)!action_hop~stop_down -- fail", 
    "Mantanoid; 23.tmx: (72,848)->(24,776)!action_jump~stop_down -- fail", 
    "Mantanoid; 23.tmx: (72,848)->(32,776)!action_approach~action_lock -- fail", 
    "Mantanoid; 23.tmx: (72,848)->(40,776)!action_approach~action_lock -- fail", 
    "Mantanoid; 23.tmx: (72,848)->(40,776)!action_hop~stop_down -- fail", 
    "Mantanoid; 23.tmx: (72,848)->(40,776)!action_jump~stop_down -- fail", 
    "Mantanoid; 23.tmx: (72,848)->(48,776)!action_approach~action_lock -- fail", 
    "Mantanoid; 23.tmx: (72,848)->(48,776)!action_hop~stop_down -- fail", 
    "Mantanoid; 23.tmx: (72,848)->(48,776)!action_jump~stop_down -- fail", 
    "Mantanoid; 23.tmx: (72,848)->(56,776)!action_approach~action_lock -- fail", 
    "Mantanoid; 23.tmx: (72,848)->(None,776)!action_approach~action_lock -- fail", 
    "Mantanoid; 23.tmx: (72,848)->(None,776)!action_hop~stop_down -- fail", 
    "Mantanoid; 23.tmx: (72,848)->(None,776)!action_jump~stop_down -- fail", 
    "Mantanoid; 23.tmx: (720,768)->(None,816)!action_approach~action_lock -- fail", 
    "Mantanoid; 24.tmx: (104,400)->(None,504)!action_approach~action_lock -- pass", 
    "Mantanoid; 24.tmx: (112,400)->(None,504)!action_approach~action_lock -- pass", 
    "Mantanoid; 24.tmx: (120,496)->(320,552)!action_approach~action_lock -- pass", 
    "Mantanoid; 24.tmx: (120,496)->(None,432)!action_approach~action_lock -- fail", 
    "Mantanoid; 24.tmx: (128,392)->(None,504)!action_approach~action_lock -- pass", 
    "Mantanoid; 24.tmx: (144,496)->(368,600)!action_approach~action_lock -- pass", 
    "Mantanoid; 24.tmx: (152,384)->(None,504)!action_approach~action_lock -- pass", 
    "Mantanoid; 24.tmx: (160,376)->(24,456)!action_approach~action_lock -- pass", 
    "Mantanoid; 24.tmx: (160,376)->(None,296)!action_approach~action_lock -- pass", 
    "Mantanoid; 24.tmx: (160,496)->(None,616)!action_approach~action_lock -- fail", 
    "Mantanoid; 24.tmx: (168,368)->(None,424)!action_approach~action_lock -- pass", 
    "Mantanoid; 24.tmx: (168,368)->(None,504)!action_approach~action_lock -- pass", 
    "Mantanoid; 24.tmx: (176,368)->(None,440)!action_approach~action_lock -- pass", 
    "Mantanoid; 24.tmx: (176,496)->(None,616)!action_approach~action_lock -- pass", 
    "Mantanoid; 24.tmx: (184,608)->(208,536)!action_approach~action_lock -- pass", 
    "Mantanoid; 24.tmx: (184,608)->(None,536)!action_approach~action_lock -- fail", 
    "Mantanoid; 24.tmx: (184,608)->(None,536)!action_hop~stop_down -- fail", 
    "Mantanoid; 24.tmx: (184,608)->(None,536)!action_jump~stop_down -- fail", 
    "Mantanoid; 24.tmx: (192,360)->(None,504)!action_approach~action_lock -- pass", 
    "Mantanoid; 24.tmx: (192,368)->(None,424)!action_approach~action_lock -- pass", 
    "Mantanoid; 24.tmx: (200,352)->(None,440)!action_approach~action_lock -- pass", 
    "Mantanoid; 24.tmx: (200,360)->(None,432)!action_approach~action_lock -- pass", 
    "Mantanoid; 24.tmx: (208,352)->(None,440)!action_approach~action_lock -- fail", 
    "Mantanoid; 24.tmx: (208,360)->(None,416)!action_approach~action_lock -- pass", 
    "Mantanoid; 24.tmx: (208,608)->(208,536)!action_approach~action_lock -- fail", 
    "Mantanoid; 24.tmx: (208,608)->(None,536)!action_approach~action_lock -- fail", 
    "Mantanoid; 24.tmx: (208,608)->(None,536)!action_hop~stop_down -- fail", 
    "Mantanoid; 24.tmx: (208,608)->(None,536)!action_jump~stop_down -- fail", 
    "Mantanoid; 24.tmx: (208,608)->(None,552)!action_approach~action_lock -- fail", 
    "Mantanoid; 24.tmx: (216,352)->(None,424)!action_approach~action_lock -- pass", 
    "Mantanoid; 24.tmx: (216,352)->(None,504)!action_approach~action_lock -- pass", 
    "Mantanoid; 24.tmx: (224,536)->(None,616)!action_approach~action_lock -- fail", 
    "Mantanoid; 24.tmx: (224,536)->(None,616)!action_jump~stop_down -- pass", 
    "Mantanoid; 24.tmx: (232,352)->(None,424)!action_approach~action_lock -- pass", 
    "Mantanoid; 24.tmx: (232,352)->(None,504)!action_approach~action_lock -- fail", 
    "Mantanoid; 24.tmx: (232,352)->(None,616)!action_approach~action_lock -- fail", 
    "Mantanoid; 24.tmx: (232,608)->(232,552)!action_approach~action_lock -- fail", 
    "Mantanoid; 24.tmx: (232,608)->(None,536)!action_approach~action_lock -- fail", 
    "Mantanoid; 24.tmx: (232,608)->(None,552)!action_approach~action_lock -- fail", 
    "Mantanoid; 24.tmx: (232,608)->(None,552)!action_hop~stop_down -- fail", 
    "Mantanoid; 24.tmx: (232,608)->(None,552)!action_jump~stop_down -- fail", 
    "Mantanoid; 24.tmx: (24,496)->(16,424)!action_hop~stop_down -- pass", 
    "Mantanoid; 24.tmx: (24,496)->(32,360)!action_approach~action_lock -- fail", 
    "Mantanoid; 24.tmx: (24,496)->(64,408)!action_approach~action_lock -- pass", 
    "Mantanoid; 24.tmx: (24,496)->(None,424)!action_approach~action_lock -- fail", 
    "Mantanoid; 24.tmx: (24,496)->(None,424)!action_jump~stop_down -- pass", 
    "Mantanoid; 24.tmx: (24,496)->(None,440)!action_approach~action_lock -- fail", 
    "Mantanoid; 24.tmx: (248,352)->(None,408)!action_approach~action_lock -- fail", 
    "Mantanoid; 24.tmx: (248,352)->(None,616)!action_approach~action_lock -- fail", 
    "Mantanoid; 24.tmx: (248,536)->(None,616)!action_approach~action_lock -- fail", 
    "Mantanoid; 24.tmx: (256,352)->(328,568)!action_approach~action_lock -- pass", 
    "Mantanoid; 24.tmx: (256,352)->(None,296)!action_approach~action_lock -- fail", 
    "Mantanoid; 24.tmx: (256,352)->(None,520)!action_approach~action_lock -- fail", 
    "Mantanoid; 24.tmx: (256,544)->(None,616)!action_approach~action_lock -- fail", 
    "Mantanoid; 24.tmx: (256,608)->(232,552)!action_approach~action_lock -- pass", 
    "Mantanoid; 24.tmx: (256,608)->(312,552)!action_approach~action_lock -- pass", 
    "Mantanoid; 24.tmx: (256,608)->(None,552)!action_approach~action_lock -- fail", 
    "Mantanoid; 24.tmx: (256,608)->(None,552)!action_hop~stop_down -- fail", 
    "Mantanoid; 24.tmx: (256,608)->(None,552)!action_jump~stop_down -- fail", 
    "Mantanoid; 24.tmx: (264,544)->(None,616)!action_approach~action_lock -- fail", 
    "Mantanoid; 24.tmx: (264,608)->(None,552)!action_approach~action_lock -- fail", 
    "Mantanoid; 24.tmx: (272,344)->(360,256)!action_approach~action_lock -- pass", 
    "Mantanoid; 24.tmx: (272,344)->(None,616)!action_approach~action_lock -- fail", 
    "Mantanoid; 24.tmx: (272,352)->(None,408)!action_approach~action_lock -- fail", 
    "Mantanoid; 24.tmx: (272,352)->(None,616)!action_approach~action_lock -- fail", 
    "Mantanoid; 24.tmx: (272,536)->(None,616)!action_approach~action_lock -- fail", 
    "Mantanoid; 24.tmx: (272,536)->(None,616)!action_jump~stop_down -- pass", 
    "Mantanoid; 24.tmx: (280,344)->(None,616)!action_approach~action_lock -- fail", 
    "Mantanoid; 24.tmx: (280,352)->(304,528)!action_approach~action_lock -- pass", 
    "Mantanoid; 24.tmx: (280,352)->(72,416)!action_approach~action_lock -- pass", 
    "Mantanoid; 24.tmx: (280,352)->(None,296)!action_approach~action_lock -- fail", 
    "Mantanoid; 24.tmx: (280,352)->(None,544)!action_approach~action_lock -- fail", 
    "Mantanoid; 24.tmx: (280,608)->(256,552)!action_approach~action_lock -- pass", 
    "Mantanoid; 24.tmx: (280,608)->(None,552)!action_approach~action_lock -- fail", 
    "Mantanoid; 24.tmx: (280,608)->(None,552)!action_hop~stop_down -- fail", 
    "Mantanoid; 24.tmx: (280,608)->(None,552)!action_jump~stop_down -- fail", 
    "Mantanoid; 24.tmx: (288,352)->(344,272)!action_approach~action_lock -- pass", 
    "Mantanoid; 24.tmx: (288,352)->(360,288)!action_approach~action_lock -- pass", 
    "Mantanoid; 24.tmx: (288,352)->(None,296)!action_approach~action_lock -- fail", 
    "Mantanoid; 24.tmx: (288,608)->(None,552)!action_approach~action_lock -- fail", 
    "Mantanoid; 24.tmx: (296,344)->(None,296)!action_approach~action_lock -- fail", 
    "Mantanoid; 24.tmx: (296,344)->(None,616)!action_approach~action_lock -- fail", 
    "Mantanoid; 24.tmx: (296,352)->(None,408)!action_approach~action_lock -- fail", 
    "Mantanoid; 24.tmx: (296,536)->(376,616)!action_hop~stop_down -- pass", 
    "Mantanoid; 24.tmx: (296,544)->(360,616)!action_hop~stop_down -- pass", 
    "Mantanoid; 24.tmx: (296,544)->(376,616)!action_hop~stop_down -- pass", 
    "Mantanoid; 24.tmx: (304,352)->(None,296)!action_approach~action_lock -- fail", 
    "Mantanoid; 24.tmx: (304,352)->(None,432)!action_approach~action_lock -- fail", 
    "Mantanoid; 24.tmx: (304,352)->(None,552)!action_approach~action_lock -- fail", 
    "Mantanoid; 24.tmx: (304,608)->(240,552)!action_approach~action_lock -- pass", 
    "Mantanoid; 24.tmx: (304,608)->(None,552)!action_approach~action_lock -- fail", 
    "Mantanoid; 24.tmx: (304,608)->(None,552)!action_hop~stop_down -- fail", 
    "Mantanoid; 24.tmx: (304,608)->(None,552)!action_jump~stop_down -- fail", 
    "Mantanoid; 24.tmx: (312,352)->(None,296)!action_approach~action_lock -- fail", 
    "Mantanoid; 24.tmx: (312,352)->(None,296)!action_jump~stop_down -- pass", 
    "Mantanoid; 24.tmx: (312,608)->(None,552)!action_approach~action_lock -- fail", 
    "Mantanoid; 24.tmx: (32,496)->(None,424)!action_approach~action_lock -- fail", 
    "Mantanoid; 24.tmx: (320,352)->(None,408)!action_approach~action_lock -- fail", 
    "Mantanoid; 24.tmx: (328,352)->(None,432)!action_approach~action_lock -- fail", 
    "Mantanoid; 24.tmx: (328,608)->(296,536)!action_approach~action_lock -- pass", 
    "Mantanoid; 24.tmx: (328,608)->(None,552)!action_approach~action_lock -- fail", 
    "Mantanoid; 24.tmx: (328,608)->(None,552)!action_jump~stop_down -- pass", 
    "Mantanoid; 24.tmx: (336,344)->(344,616)!action_hop~stop_down -- pass", 
    "Mantanoid; 24.tmx: (336,344)->(360,240)!action_hop~stop_down -- fail", 
    "Mantanoid; 24.tmx: (336,344)->(360,296)!action_hop~stop_down -- fail", 
    "Mantanoid; 24.tmx: (336,352)->(360,296)!action_hop~stop_down -- fail", 
    "Mantanoid; 24.tmx: (336,352)->(360,296)!action_jump~stop_down -- pass", 
    "Mantanoid; 24.tmx: (336,352)->(40,416)!action_approach~action_lock -- pass", 
    "Mantanoid; 24.tmx: (336,352)->(None,296)!action_approach~action_lock -- fail", 
    "Mantanoid; 24.tmx: (336,352)->(None,296)!action_jump~stop_down -- pass", 
    "Mantanoid; 24.tmx: (336,352)->(None,552)!action_approach~action_lock -- fail", 
    "Mantanoid; 24.tmx: (336,352)->(None,552)!action_jump~stop_down -- fail", 
    "Mantanoid; 24.tmx: (336,608)->(None,552)!action_approach~action_lock -- fail", 
    "Mantanoid; 24.tmx: (336,608)->(None,552)!action_jump~stop_down -- pass", 
    "Mantanoid; 24.tmx: (352,288)->(184,376)!action_hop~stop_down -- pass", 
    "Mantanoid; 24.tmx: (352,288)->(None,360)!action_approach~action_lock -- fail", 
    "Mantanoid; 24.tmx: (352,608)->(288,544)!action_approach~action_lock -- pass", 
    "Mantanoid; 24.tmx: (352,608)->(296,528)!action_approach~action_lock -- pass", 
    "Mantanoid; 24.tmx: (352,608)->(312,544)!action_approach~action_lock -- pass", 
    "Mantanoid; 24.tmx: (352,608)->(None,552)!action_approach~action_lock -- fail", 
    "Mantanoid; 24.tmx: (360,608)->(280,528)!action_approach~action_lock -- pass", 
    "Mantanoid; 24.tmx: (360,608)->(None,552)!action_approach~action_lock -- fail", 
    "Mantanoid; 24.tmx: (48,496)->(16,376)!action_approach~action_lock -- pass", 
    "Mantanoid; 24.tmx: (48,496)->(32,416)!action_approach~action_lock -- pass", 
    "Mantanoid; 24.tmx: (48,496)->(40,424)!action_approach~action_lock -- fail", 
    "Mantanoid; 24.tmx: (48,496)->(None,416)!action_approach~action_lock -- fail", 
    "Mantanoid; 24.tmx: (48,496)->(None,440)!action_approach~action_lock -- fail", 
    "Mantanoid; 24.tmx: (56,424)->(16,504)!action_hop~stop_down -- pass", 
    "Mantanoid; 24.tmx: (56,496)->(None,424)!action_approach~action_lock -- fail", 
    "Mantanoid; 24.tmx: (72,496)->(None,416)!action_approach~action_lock -- fail", 
    "Mantanoid; 24.tmx: (72,496)->(None,440)!action_approach~action_lock -- fail", 
    "Mantanoid; 24.tmx: (72,496)->(None,552)!action_approach~action_lock -- fail", 
    "Mantanoid; 24.tmx: (80,416)->(None,504)!action_approach~action_lock -- pass", 
    "Mantanoid; 24.tmx: (80,496)->(None,424)!action_approach~action_lock -- fail", 
    "Mantanoid; 24.tmx: (96,408)->(None,360)!action_approach~action_lock -- pass", 
    "Mantanoid; 24.tmx: (96,496)->(24,440)!action_approach~action_lock -- pass", 
    "Mantanoid; 24.tmx: (96,496)->(None,416)!action_approach~action_lock -- fail", 
    "Mantanoid; 24.tmx: (96,496)->(None,552)!action_approach~action_lock -- fail", 
    "Mantanoid; 35.tmx: (240,176)->(240,80)!action_approach~action_lock -- fail", 
    "Mantanoid; 35.tmx: (312,176)->(288,104)!action_approach~action_lock -- pass", 
    "Mantanoid; 35.tmx: (320,176)->(288,104)!action_approach~action_lock -- pass", 
    "Mantanoid; 35.tmx: (328,176)->(288,104)!action_approach~action_lock -- pass", 
    "Mantanoid; 35.tmx: (328,176)->(384,104)!action_approach~action_lock -- pass", 
    "Mantanoid; 35.tmx: (328,176)->(504,112)!action_approach~action_lock -- pass", 
    "Mantanoid; 35.tmx: (328,176)->(624,120)!action_approach~action_lock -- pass", 
    "Mantanoid; 35.tmx: (336,176)->(272,112)!action_approach~action_lock -- pass", 
    "Mantanoid; 35.tmx: (336,176)->(288,96)!action_approach~action_lock -- pass", 
    "Mantanoid; 35.tmx: (336,176)->(408,96)!action_approach~action_lock -- pass", 
    "Mantanoid; 35.tmx: (336,176)->(424,104)!action_approach~action_lock -- pass", 
    "Mantanoid; 35.tmx: (352,176)->(240,104)!action_approach~action_lock -- pass", 
    "Mantanoid; 35.tmx: (352,176)->(424,112)!action_approach~action_lock -- pass", 
    "Mantanoid; 35.tmx: (360,176)->(272,104)!action_approach~action_lock -- pass", 
    "Mantanoid; 35.tmx: (368,176)->(400,120)!action_approach~action_lock -- pass", 
    "Mantanoid; 35.tmx: (392,176)->(520,96)!action_approach~action_lock -- pass", 
    "Mantanoid; 35.tmx: (416,176)->(336,120)!action_approach~action_lock -- pass", 
    "Mantanoid; 35.tmx: (424,176)->(712,96)!action_approach~action_lock -- pass", 
    "Mantanoid; 35.tmx: (440,176)->(384,104)!action_approach~action_lock -- pass", 
    "Mantanoid; 35.tmx: (464,176)->(672,96)!action_approach~action_lock -- pass", 
    "Mantanoid; 35.tmx: (472,176)->(304,96)!action_approach~action_lock -- pass", 
    "Mantanoid; 35.tmx: (488,176)->(352,120)!action_approach~action_lock -- pass", 
    "Mantanoid; 35.tmx: (488,176)->(432,112)!action_approach~action_lock -- pass", 
    "Mantanoid; 35.tmx: (496,176)->(336,96)!action_approach~action_lock -- pass", 
    "Mantanoid; 35.tmx: (512,176)->(336,104)!action_approach~action_lock -- pass", 
    "Mantanoid; 35.tmx: (512,176)->(560,112)!action_approach~action_lock -- pass", 
    "Mantanoid; 35.tmx: (512,176)->(584,96)!action_approach~action_lock -- pass", 
    "Mantanoid; 35.tmx: (552,176)->(720,104)!action_approach~action_lock -- pass", 
    "Mantanoid; 35.tmx: (560,176)->(456,112)!action_approach~action_lock -- pass", 
    "Mantanoid; 35.tmx: (576,176)->(704,112)!action_approach~action_lock -- pass", 
    "Mantanoid; 35.tmx: (576,176)->(816,112)!action_approach~action_lock -- pass", 
    "Mantanoid; 35.tmx: (576,176)->(848,104)!action_approach~action_lock -- pass", 
    "Mantanoid; 35.tmx: (584,176)->(488,104)!action_approach~action_lock -- pass", 
    "Mantanoid; 35.tmx: (592,176)->(848,112)!action_approach~action_lock -- pass", 
    "Mantanoid; 35.tmx: (600,176)->(688,120)!action_approach~action_lock -- pass", 
    "Mantanoid; 35.tmx: (616,176)->(392,104)!action_approach~action_lock -- pass", 
    "Mantanoid; 35.tmx: (640,176)->(400,120)!action_approach~action_lock -- pass", 
    "Mantanoid; 35.tmx: (648,176)->(608,104)!action_approach~action_lock -- pass", 
    "Mantanoid; 35.tmx: (656,176)->(592,120)!action_approach~action_lock -- pass", 
    "Mantanoid; 35.tmx: (664,176)->(736,104)!action_approach~action_lock -- pass", 
    "Mantanoid; 35.tmx: (672,176)->(704,120)!action_approach~action_lock -- pass", 
    "Mantanoid; 35.tmx: (672,176)->(848,104)!action_approach~action_lock -- pass", 
    "Mantanoid; 35.tmx: (680,176)->(384,96)!action_approach~action_lock -- pass", 
    "Mantanoid; 35.tmx: (680,176)->(488,96)!action_approach~action_lock -- pass", 
    "Mantanoid; 35.tmx: (688,176)->(776,104)!action_approach~action_lock -- pass", 
    "Mantanoid; 35.tmx: (696,176)->(456,112)!action_approach~action_lock -- pass", 
    "Mantanoid; 35.tmx: (712,176)->(656,120)!action_approach~action_lock -- pass", 
    "Mantanoid; 35.tmx: (720,176)->(504,104)!action_approach~action_lock -- pass", 
    "Mantanoid; 35.tmx: (728,176)->(664,104)!action_approach~action_lock -- pass", 
    "Mantanoid; 35.tmx: (728,176)->(664,112)!action_approach~action_lock -- pass", 
    "Mantanoid; 35.tmx: (728,176)->(712,96)!action_approach~action_lock -- pass", 
    "Mantanoid; 35.tmx: (728,176)->(840,104)!action_approach~action_lock -- pass", 
    "Mantanoid; 35.tmx: (736,176)->(664,96)!action_approach~action_lock -- pass", 
    "Mantanoid; 35.tmx: (744,176)->(744,112)!action_approach~action_lock -- fail", 
    "Mantanoid; 35.tmx: (744,176)->(832,120)!action_approach~action_lock -- pass", 
    "Mantanoid; 35.tmx: (752,176)->(600,120)!action_approach~action_lock -- pass", 
    "Mantanoid; 35.tmx: (752,176)->(624,96)!action_approach~action_lock -- pass", 
    "Mantanoid; 35.tmx: (768,176)->(656,104)!action_approach~action_lock -- pass", 
    "Mantanoid; 35.tmx: (768,176)->(864,104)!action_approach~action_lock -- pass", 
    "Mantanoid; 35.tmx: (776,176)->(864,112)!action_approach~action_lock -- pass", 
    "Mantanoid; 35.tmx: (784,176)->(648,104)!action_approach~action_lock -- pass", 
    "Mantanoid; 35.tmx: (784,176)->(672,112)!action_approach~action_lock -- pass", 
    "Mantanoid; 35.tmx: (816,176)->(632,104)!action_approach~action_lock -- pass", 
    "Mantanoid; 35.tmx: (816,176)->(728,104)!action_approach~action_lock -- pass", 
    "Mantanoid; 35.tmx: (824,176)->(720,120)!action_approach~action_lock -- pass", 
    "Mantanoid; 35.tmx: (840,176)->(696,104)!action_approach~action_lock -- pass", 
    "Mantanoid; 35.tmx: (840,176)->(776,120)!action_approach~action_lock -- pass", 
    "Mantanoid; 37.tmx: (104,176)->(184,96)!action_approach~action_lock -- pass", 
    "Mantanoid; 37.tmx: (104,176)->(88,96)!action_approach~action_lock -- pass", 
    "Mantanoid; 37.tmx: (112,176)->(72,104)!action_approach~action_lock -- pass", 
    "Mantanoid; 37.tmx: (152,176)->(376,104)!action_approach~action_lock -- pass", 
    "Mantanoid; 37.tmx: (176,176)->(288,112)!action_approach~action_lock -- pass", 
    "Mantanoid; 37.tmx: (176,176)->(384,104)!action_approach~action_lock -- pass", 
    "Mantanoid; 37.tmx: (200,176)->(360,80)!action_approach~action_lock -- pass", 
    "Mantanoid; 37.tmx: (216,176)->(368,104)!action_approach~action_lock -- pass", 
    "Mantanoid; 37.tmx: (224,176)->(312,104)!action_approach~action_lock -- pass", 
    "Mantanoid; 37.tmx: (224,176)->(72,112)!action_approach~action_lock -- pass", 
    "Mantanoid; 37.tmx: (240,176)->(384,120)!action_approach~action_lock -- pass", 
    "Mantanoid; 37.tmx: (256,176)->(168,96)!action_approach~action_lock -- pass", 
    "Mantanoid; 37.tmx: (256,176)->(296,104)!action_approach~action_lock -- pass", 
    "Mantanoid; 37.tmx: (256,176)->(384,96)!action_approach~action_lock -- pass", 
    "Mantanoid; 37.tmx: (264,176)->(360,88)!action_approach~action_lock -- pass", 
    "Mantanoid; 37.tmx: (280,176)->(384,96)!action_approach~action_lock -- pass", 
    "Mantanoid; 37.tmx: (312,176)->(376,104)!action_approach~action_lock -- pass", 
    "Mantanoid; 37.tmx: (320,176)->(344,96)!action_approach~action_lock -- pass", 
    "Mantanoid; 37.tmx: (328,176)->(376,104)!action_approach~action_lock -- pass", 
    "Mantanoid; 37.tmx: (336,176)->(384,104)!action_approach~action_lock -- pass", 
    "Mantanoid; 37.tmx: (352,176)->(376,112)!action_approach~action_lock -- pass", 
    "Mantanoid; 37.tmx: (96,176)->(176,104)!action_approach~action_lock -- pass", 
    "Mantanoid; 9.tmx: (104,160)->(112,56)!action_approach~action_lock -- pass", 
    "Mantanoid; 9.tmx: (104,160)->(120,56)!action_approach~action_lock -- pass", 
    "Mantanoid; 9.tmx: (104,160)->(168,56)!action_approach~action_lock -- pass", 
    "Mantanoid; 9.tmx: (104,160)->(40,64)!action_approach~action_lock -- pass", 
    "Mantanoid; 9.tmx: (104,160)->(48,88)!action_approach~action_lock -- pass", 
    "Mantanoid; 9.tmx: (104,160)->(80,56)!action_approach~action_lock -- pass", 
    "Mantanoid; 9.tmx: (104,160)->(None,56)!action_approach~action_lock -- fail", 
    "Mantanoid; 9.tmx: (104,160)->(None,56)!action_hop~stop_down -- fail", 
    "Mantanoid; 9.tmx: (104,160)->(None,56)!action_jump~stop_down -- fail", 
    "Mantanoid; 9.tmx: (104,160)->(None,96)!action_approach~action_lock -- fail", 
    "Mantanoid; 9.tmx: (112,160)->(104,56)!action_approach~action_lock -- pass", 
    "Mantanoid; 9.tmx: (112,160)->(96,56)!action_approach~action_lock -- pass", 
    "Mantanoid; 9.tmx: (112,160)->(None,56)!action_approach~action_lock -- fail", 
    "Mantanoid; 9.tmx: (112,160)->(None,56)!action_hop~stop_down -- fail", 
    "Mantanoid; 9.tmx: (112,160)->(None,56)!action_jump~stop_down -- fail", 
    "Mantanoid; 9.tmx: (112,160)->(None,96)!action_approach~action_lock -- fail", 
    "Mantanoid; 9.tmx: (112,160)->(None,96)!action_hop~stop_down -- fail", 
    "Mantanoid; 9.tmx: (112,160)->(None,96)!action_jump~stop_down -- fail", 
    "Mantanoid; 9.tmx: (120,160)->(112,56)!action_approach~action_lock -- fail", 
    "Mantanoid; 9.tmx: (120,160)->(152,56)!action_approach~action_lock -- pass", 
    "Mantanoid; 9.tmx: (120,160)->(96,56)!action_approach~action_lock -- pass", 
    "Mantanoid; 9.tmx: (120,160)->(None,56)!action_approach~action_lock -- fail", 
    "Mantanoid; 9.tmx: (120,160)->(None,56)!action_hop~stop_down -- fail", 
    "Mantanoid; 9.tmx: (120,160)->(None,56)!action_jump~stop_down -- fail", 
    "Mantanoid; 9.tmx: (120,160)->(None,96)!action_approach~action_lock -- fail", 
    "Mantanoid; 9.tmx: (128,160)->(112,56)!action_approach~action_lock -- fail", 
    "Mantanoid; 9.tmx: (128,160)->(120,56)!action_approach~action_lock -- pass", 
    "Mantanoid; 9.tmx: (128,160)->(136,56)!action_approach~action_lock -- fail", 
    "Mantanoid; 9.tmx: (128,160)->(136,56)!action_hop~stop_down -- fail", 
    "Mantanoid; 9.tmx: (128,160)->(144,56)!action_approach~action_lock -- fail", 
    "Mantanoid; 9.tmx: (128,160)->(144,56)!action_hop~stop_down -- fail", 
    "Mantanoid; 9.tmx: (128,160)->(152,56)!action_approach~action_lock -- fail", 
    "Mantanoid; 9.tmx: (128,160)->(152,56)!action_hop~stop_down -- fail", 
    "Mantanoid; 9.tmx: (128,160)->(152,56)!action_jump~stop_down -- fail", 
    "Mantanoid; 9.tmx: (128,160)->(168,56)!action_approach~action_lock -- fail", 
    "Mantanoid; 9.tmx: (128,160)->(176,56)!action_approach~action_lock -- fail", 
    "Mantanoid; 9.tmx: (128,160)->(184,56)!action_approach~action_lock -- fail", 
    "Mantanoid; 9.tmx: (128,160)->(192,56)!action_approach~action_lock -- fail", 
    "Mantanoid; 9.tmx: (128,160)->(200,56)!action_approach~action_lock -- fail", 
    "Mantanoid; 9.tmx: (128,160)->(208,56)!action_approach~action_lock -- fail", 
    "Mantanoid; 9.tmx: (128,160)->(208,56)!action_hop~stop_down -- fail", 
    "Mantanoid; 9.tmx: (128,160)->(224,56)!action_approach~action_lock -- fail", 
    "Mantanoid; 9.tmx: (128,160)->(232,56)!action_approach~action_lock -- fail", 
    "Mantanoid; 9.tmx: (128,160)->(240,56)!action_approach~action_lock -- fail", 
    "Mantanoid; 9.tmx: (128,160)->(248,56)!action_approach~action_lock -- fail", 
    "Mantanoid; 9.tmx: (128,160)->(256,56)!action_approach~action_lock -- fail", 
    "Mantanoid; 9.tmx: (128,160)->(296,56)!action_hop~stop_down -- fail", 
    "Mantanoid; 9.tmx: (128,160)->(80,56)!action_approach~action_lock -- pass", 
    "Mantanoid; 9.tmx: (128,160)->(None,56)!action_approach~action_lock -- fail", 
    "Mantanoid; 9.tmx: (128,160)->(None,56)!action_hop~stop_down -- fail", 
    "Mantanoid; 9.tmx: (128,160)->(None,56)!action_jump~stop_down -- fail", 
    "Mantanoid; 9.tmx: (128,160)->(None,96)!action_approach~action_lock -- fail", 
    "Mantanoid; 9.tmx: (128,160)->(None,96)!action_hop~stop_down -- fail", 
    "Mantanoid; 9.tmx: (128,160)->(None,96)!action_jump~stop_down -- fail", 
    "Mantanoid; 9.tmx: (16,160)->(16,96)!action_approach~action_lock -- fail", 
    "Mantanoid; 9.tmx: (16,160)->(24,96)!action_approach~action_lock -- fail", 
    "Mantanoid; 9.tmx: (16,160)->(32,96)!action_approach~action_lock -- pass", 
    "Mantanoid; 9.tmx: (16,160)->(48,96)!action_approach~action_lock -- pass", 
    "Mantanoid; 9.tmx: (16,160)->(None,96)!action_approach~action_lock -- fail", 
    "Mantanoid; 9.tmx: (16,160)->(None,96)!action_hop~stop_down -- fail", 
    "Mantanoid; 9.tmx: (16,160)->(None,96)!action_jump~stop_down -- fail", 
    "Mantanoid; 9.tmx: (224,48)->(None,104)!action_approach~action_lock -- fail", 
    "Mantanoid; 9.tmx: (24,160)->(32,96)!action_approach~action_lock -- fail", 
    "Mantanoid; 9.tmx: (24,160)->(40,96)!action_approach~action_lock -- pass", 
    "Mantanoid; 9.tmx: (24,160)->(80,32)!action_approach~action_lock -- pass", 
    "Mantanoid; 9.tmx: (24,160)->(None,96)!action_approach~action_lock -- fail", 
    "Mantanoid; 9.tmx: (24,160)->(None,96)!action_hop~stop_down -- fail", 
    "Mantanoid; 9.tmx: (24,160)->(None,96)!action_jump~stop_down -- fail", 
    "Mantanoid; 9.tmx: (32,160)->(32,96)!action_approach~action_lock -- fail", 
    "Mantanoid; 9.tmx: (32,160)->(40,96)!action_approach~action_lock -- fail", 
    "Mantanoid; 9.tmx: (32,160)->(None,56)!action_approach~action_lock -- fail", 
    "Mantanoid; 9.tmx: (32,160)->(None,96)!action_approach~action_lock -- fail", 
    "Mantanoid; 9.tmx: (32,160)->(None,96)!action_hop~stop_down -- fail", 
    "Mantanoid; 9.tmx: (32,160)->(None,96)!action_jump~stop_down -- fail", 
    "Mantanoid; 9.tmx: (32,88)->(104,56)!action_hop~stop_down -- fail", 
    "Mantanoid; 9.tmx: (32,88)->(120,56)!action_hop~stop_down -- fail", 
    "Mantanoid; 9.tmx: (32,88)->(120,56)!action_jump~stop_down -- pass", 
    "Mantanoid; 9.tmx: (344,48)->(None,104)!action_approach~action_lock -- pass", 
    "Mantanoid; 9.tmx: (392,88)->(None,168)!action_approach~action_lock -- fail", 
    "Mantanoid; 9.tmx: (40,160)->(24,96)!action_approach~action_lock -- pass", 
    "Mantanoid; 9.tmx: (40,160)->(32,96)!action_approach~action_lock -- fail", 
    "Mantanoid; 9.tmx: (40,160)->(48,96)!action_approach~action_lock -- fail", 
    "Mantanoid; 9.tmx: (40,160)->(72,104)!action_approach~action_lock -- pass", 
    "Mantanoid; 9.tmx: (40,160)->(None,56)!action_approach~action_lock -- fail", 
    "Mantanoid; 9.tmx: (40,160)->(None,96)!action_approach~action_lock -- fail", 
    "Mantanoid; 9.tmx: (40,160)->(None,96)!action_hop~stop_down -- fail", 
    "Mantanoid; 9.tmx: (40,160)->(None,96)!action_jump~stop_down -- fail", 
    "Mantanoid; 9.tmx: (40,88)->(200,56)!action_hop~stop_down -- pass", 
    "Mantanoid; 9.tmx: (416,88)->(None,168)!action_approach~action_lock -- fail", 
    "Mantanoid; 9.tmx: (416,96)->(384,32)!action_approach~action_lock -- pass", 
    "Mantanoid; 9.tmx: (424,96)->(None,168)!action_approach~action_lock -- fail", 
    "Mantanoid; 9.tmx: (440,88)->(None,168)!action_approach~action_lock -- fail", 
    "Mantanoid; 9.tmx: (448,96)->(None,168)!action_approach~action_lock -- fail", 
    "Mantanoid; 9.tmx: (456,88)->(None,168)!action_approach~action_lock -- fail", 
    "Mantanoid; 9.tmx: (464,88)->(None,168)!action_approach~action_lock -- fail", 
    "Mantanoid; 9.tmx: (464,88)->(None,168)!action_jump~stop_down -- pass", 
    "Mantanoid; 9.tmx: (464,96)->(552,40)!action_approach~action_lock -- pass", 
    "Mantanoid; 9.tmx: (464,96)->(576,32)!action_approach~action_lock -- pass", 
    "Mantanoid; 9.tmx: (464,96)->(624,144)!action_approach~action_lock -- pass", 
    "Mantanoid; 9.tmx: (464,96)->(None,168)!action_approach~action_lock -- fail", 
    "Mantanoid; 9.tmx: (472,96)->(None,168)!action_approach~action_lock -- fail", 
    "Mantanoid; 9.tmx: (472,96)->(None,168)!action_jump~stop_down -- fail", 
    "Mantanoid; 9.tmx: (48,160)->(16,96)!action_approach~action_lock -- pass", 
    "Mantanoid; 9.tmx: (48,160)->(32,96)!action_approach~action_lock -- pass", 
    "Mantanoid; 9.tmx: (48,160)->(40,96)!action_approach~action_lock -- fail", 
    "Mantanoid; 9.tmx: (48,160)->(None,96)!action_approach~action_lock -- fail", 
    "Mantanoid; 9.tmx: (48,160)->(None,96)!action_hop~stop_down -- fail", 
    "Mantanoid; 9.tmx: (48,160)->(None,96)!action_jump~stop_down -- fail", 
    "Mantanoid; 9.tmx: (48,88)->(128,56)!action_hop~stop_down -- fail", 
    "Mantanoid; 9.tmx: (480,88)->(None,168)!action_approach~action_lock -- fail", 
    "Mantanoid; 9.tmx: (480,96)->(680,152)!action_approach~action_lock -- pass", 
    "Mantanoid; 9.tmx: (480,96)->(None,168)!action_approach~action_lock -- fail", 
    "Mantanoid; 9.tmx: (488,88)->(None,168)!action_approach~action_lock -- fail", 
    "Mantanoid; 9.tmx: (488,96)->(448,40)!action_approach~action_lock -- pass", 
    "Mantanoid; 9.tmx: (488,96)->(472,32)!action_approach~action_lock -- pass", 
    "Mantanoid; 9.tmx: (488,96)->(672,168)!action_approach~action_lock -- pass", 
    "Mantanoid; 9.tmx: (488,96)->(712,168)!action_approach~action_lock -- pass", 
    "Mantanoid; 9.tmx: (488,96)->(None,160)!action_approach~action_lock -- fail", 
    "Mantanoid; 9.tmx: (488,96)->(None,168)!action_approach~action_lock -- fail", 
    "Mantanoid; 9.tmx: (488,96)->(None,168)!action_hop~stop_down -- fail", 
    "Mantanoid; 9.tmx: (488,96)->(None,168)!action_jump~stop_down -- fail", 
    "Mantanoid; 9.tmx: (504,88)->(None,168)!action_approach~action_lock -- fail", 
    "Mantanoid; 9.tmx: (504,96)->(336,40)!action_approach~action_lock -- pass", 
    "Mantanoid; 9.tmx: (504,96)->(464,32)!action_approach~action_lock -- pass", 
    "Mantanoid; 9.tmx: (504,96)->(None,168)!action_approach~action_lock -- fail", 
    "Mantanoid; 9.tmx: (504,96)->(None,168)!action_jump~stop_down -- fail", 
    "Mantanoid; 9.tmx: (512,88)->(None,168)!action_approach~action_lock -- fail", 
    "Mantanoid; 9.tmx: (512,96)->(448,40)!action_approach~action_lock -- pass", 
    "Mantanoid; 9.tmx: (512,96)->(496,32)!action_approach~action_lock -- pass", 
    "Mantanoid; 9.tmx: (512,96)->(504,32)!action_approach~action_lock -- fail", 
    "Mantanoid; 9.tmx: (512,96)->(648,144)!action_approach~action_lock -- pass", 
    "Mantanoid; 9.tmx: (512,96)->(648,168)!action_approach~action_lock -- pass", 
    "Mantanoid; 9.tmx: (512,96)->(656,168)!action_approach~action_lock -- pass", 
    "Mantanoid; 9.tmx: (512,96)->(664,168)!action_approach~action_lock -- pass", 
    "Mantanoid; 9.tmx: (512,96)->(696,168)!action_approach~action_lock -- pass", 
    "Mantanoid; 9.tmx: (512,96)->(704,168)!action_approach~action_lock -- pass", 
    "Mantanoid; 9.tmx: (512,96)->(712,168)!action_approach~action_lock -- pass", 
    "Mantanoid; 9.tmx: (512,96)->(720,168)!action_approach~action_lock -- pass", 
    "Mantanoid; 9.tmx: (512,96)->(None,168)!action_approach~action_lock -- fail", 
    "Mantanoid; 9.tmx: (512,96)->(None,168)!action_hop~stop_down -- fail", 
    "Mantanoid; 9.tmx: (512,96)->(None,168)!action_jump~stop_down -- fail", 
    "Mantanoid; 9.tmx: (520,96)->(464,40)!action_approach~action_lock -- pass", 
    "Mantanoid; 9.tmx: (520,96)->(608,40)!action_approach~action_lock -- pass", 
    "Mantanoid; 9.tmx: (520,96)->(None,168)!action_approach~action_lock -- fail", 
    "Mantanoid; 9.tmx: (520,96)->(None,168)!action_jump~stop_down -- fail", 
    "Mantanoid; 9.tmx: (528,88)->(None,168)!action_approach~action_lock -- fail", 
    "Mantanoid; 9.tmx: (528,88)->(None,168)!action_jump~stop_down -- pass", 
    "Mantanoid; 9.tmx: (528,96)->(408,40)!action_approach~action_lock -- pass", 
    "Mantanoid; 9.tmx: (528,96)->(504,40)!action_approach~action_lock -- pass", 
    "Mantanoid; 9.tmx: (528,96)->(None,168)!action_approach~action_lock -- fail", 
    "Mantanoid; 9.tmx: (528,96)->(None,168)!action_hop~stop_down -- fail", 
    "Mantanoid; 9.tmx: (528,96)->(None,168)!action_jump~stop_down -- fail", 
    "Mantanoid; 9.tmx: (536,96)->(352,32)!action_approach~action_lock -- pass", 
    "Mantanoid; 9.tmx: (536,96)->(432,32)!action_approach~action_lock -- pass", 
    "Mantanoid; 9.tmx: (536,96)->(496,32)!action_approach~action_lock -- pass", 
    "Mantanoid; 9.tmx: (536,96)->(512,40)!action_approach~action_lock -- pass", 
    "Mantanoid; 9.tmx: (536,96)->(592,168)!action_approach~action_lock -- pass", 
    "Mantanoid; 9.tmx: (536,96)->(600,168)!action_approach~action_lock -- pass", 
    "Mantanoid; 9.tmx: (536,96)->(656,168)!action_approach~action_lock -- pass", 
    "Mantanoid; 9.tmx: (536,96)->(672,168)!action_approach~action_lock -- pass", 
    "Mantanoid; 9.tmx: (536,96)->(696,168)!action_approach~action_lock -- pass", 
    "Mantanoid; 9.tmx: (536,96)->(704,168)!action_approach~action_lock -- pass", 
    "Mantanoid; 9.tmx: (536,96)->(744,168)!action_approach~action_lock -- pass", 
    "Mantanoid; 9.tmx: (536,96)->(760,168)!action_approach~action_lock -- pass", 
    "Mantanoid; 9.tmx: (536,96)->(None,168)!action_approach~action_lock -- fail", 
    "Mantanoid; 9.tmx: (536,96)->(None,168)!action_hop~stop_down -- fail", 
    "Mantanoid; 9.tmx: (536,96)->(None,168)!action_jump~stop_down -- fail", 
    "Mantanoid; 9.tmx: (544,96)->(416,32)!action_approach~action_lock -- pass", 
    "Mantanoid; 9.tmx: (544,96)->(520,32)!action_approach~action_lock -- pass", 
    "Mantanoid; 9.tmx: (544,96)->(528,40)!action_approach~action_lock -- pass", 
    "Mantanoid; 9.tmx: (544,96)->(None,168)!action_approach~action_lock -- fail", 
    "Mantanoid; 9.tmx: (544,96)->(None,168)!action_hop~stop_down -- fail", 
    "Mantanoid; 9.tmx: (544,96)->(None,168)!action_jump~stop_down -- fail", 
    "Mantanoid; 9.tmx: (552,96)->(688,168)!action_approach~action_lock -- pass", 
    "Mantanoid; 9.tmx: (552,96)->(None,168)!action_approach~action_lock -- fail", 
    "Mantanoid; 9.tmx: (552,96)->(None,168)!action_hop~stop_down -- fail", 
    "Mantanoid; 9.tmx: (552,96)->(None,168)!action_jump~stop_down -- fail", 
    "Mantanoid; 9.tmx: (56,160)->(16,96)!action_approach~action_lock -- pass", 
    "Mantanoid; 9.tmx: (56,160)->(24,96)!action_approach~action_lock -- pass", 
    "Mantanoid; 9.tmx: (56,160)->(32,96)!action_approach~action_lock -- pass", 
    "Mantanoid; 9.tmx: (56,160)->(40,56)!action_approach~action_lock -- pass", 
    "Mantanoid; 9.tmx: (56,160)->(40,96)!action_approach~action_lock -- pass", 
    "Mantanoid; 9.tmx: (56,160)->(64,96)!action_approach~action_lock -- fail", 
    "Mantanoid; 9.tmx: (56,160)->(None,56)!action_approach~action_lock -- fail", 
    "Mantanoid; 9.tmx: (56,160)->(None,56)!action_hop~stop_down -- fail", 
    "Mantanoid; 9.tmx: (56,160)->(None,56)!action_jump~stop_down -- fail", 
    "Mantanoid; 9.tmx: (56,160)->(None,96)!action_approach~action_lock -- fail", 
    "Mantanoid; 9.tmx: (56,160)->(None,96)!action_hop~stop_down -- fail", 
    "Mantanoid; 9.tmx: (56,160)->(None,96)!action_jump~stop_down -- fail", 
    "Mantanoid; 9.tmx: (560,96)->(512,40)!action_approach~action_lock -- pass", 
    "Mantanoid; 9.tmx: (560,96)->(528,40)!action_approach~action_lock -- pass", 
    "Mantanoid; 9.tmx: (560,96)->(536,32)!action_approach~action_lock -- pass", 
    "Mantanoid; 9.tmx: (560,96)->(552,32)!action_approach~action_lock -- fail", 
    "Mantanoid; 9.tmx: (568,152)->(336,56)!action_hop~stop_down -- fail", 
    "Mantanoid; 9.tmx: (568,160)->(344,56)!action_hop~stop_down -- fail", 
    "Mantanoid; 9.tmx: (568,160)->(344,56)!action_jump~stop_down -- fail", 
    "Mantanoid; 9.tmx: (568,160)->(352,32)!action_hop~stop_down -- fail", 
    "Mantanoid; 9.tmx: (568,160)->(400,104)!action_approach~action_lock -- fail", 
    "Mantanoid; 9.tmx: (568,160)->(424,104)!action_approach~action_lock -- fail", 
    "Mantanoid; 9.tmx: (568,160)->(424,104)!action_hop~stop_down -- fail", 
    "Mantanoid; 9.tmx: (568,160)->(424,104)!action_jump~stop_down -- fail", 
    "Mantanoid; 9.tmx: (568,160)->(448,104)!action_approach~action_lock -- fail", 
    "Mantanoid; 9.tmx: (568,160)->(512,72)!action_approach~action_lock -- fail", 
    "Mantanoid; 9.tmx: (568,160)->(536,104)!action_approach~action_lock -- fail", 
    "Mantanoid; 9.tmx: (568,160)->(552,104)!action_approach~action_lock -- fail", 
    "Mantanoid; 9.tmx: (568,160)->(None,104)!action_approach~action_lock -- fail", 
    "Mantanoid; 9.tmx: (568,160)->(None,104)!action_hop~stop_down -- fail", 
    "Mantanoid; 9.tmx: (568,160)->(None,104)!action_jump~stop_down -- fail", 
    "Mantanoid; 9.tmx: (576,88)->(712,168)!action_hop~stop_down -- pass", 
    "Mantanoid; 9.tmx: (576,96)->(592,168)!action_hop~stop_down -- pass", 
    "Mantanoid; 9.tmx: (576,96)->(624,168)!action_hop~stop_down -- pass", 
    "Mantanoid; 9.tmx: (576,96)->(640,168)!action_hop~stop_down -- pass", 
    "Mantanoid; 9.tmx: (576,96)->(648,168)!action_hop~stop_down -- pass", 
    "Mantanoid; 9.tmx: (576,96)->(656,168)!action_hop~stop_down -- pass", 
    "Mantanoid; 9.tmx: (576,96)->(672,168)!action_hop~stop_down -- pass", 
    "Mantanoid; 9.tmx: (576,96)->(680,168)!action_hop~stop_down -- pass", 
    "Mantanoid; 9.tmx: (576,96)->(688,168)!action_hop~stop_down -- pass", 
    "Mantanoid; 9.tmx: (576,96)->(704,104)!action_hop~stop_down -- pass", 
    "Mantanoid; 9.tmx: (576,96)->(704,168)!action_hop~stop_down -- pass", 
    "Mantanoid; 9.tmx: (576,96)->(712,168)!action_hop~stop_down -- pass", 
    "Mantanoid; 9.tmx: (576,96)->(720,168)!action_hop~stop_down -- pass", 
    "Mantanoid; 9.tmx: (576,96)->(728,168)!action_hop~stop_down -- pass", 
    "Mantanoid; 9.tmx: (576,96)->(736,168)!action_hop~stop_down -- pass", 
    "Mantanoid; 9.tmx: (576,96)->(744,168)!action_hop~stop_down -- pass", 
    "Mantanoid; 9.tmx: (576,96)->(752,168)!action_hop~stop_down -- pass", 
    "Mantanoid; 9.tmx: (576,96)->(792,168)!action_hop~stop_down -- pass", 
    "Mantanoid; 9.tmx: (576,96)->(848,168)!action_hop~stop_down -- pass", 
    "Mantanoid; 9.tmx: (584,96)->(512,104)!action_hop~stop_down -- pass", 
    "Mantanoid; 9.tmx: (584,96)->(608,168)!action_hop~stop_down -- pass", 
    "Mantanoid; 9.tmx: (584,96)->(624,168)!action_hop~stop_down -- pass", 
    "Mantanoid; 9.tmx: (584,96)->(640,120)!action_hop~stop_down -- pass", 
    "Mantanoid; 9.tmx: (584,96)->(640,168)!action_hop~stop_down -- pass", 
    "Mantanoid; 9.tmx: (584,96)->(640,64)!action_hop~stop_down -- fail", 
    "Mantanoid; 9.tmx: (584,96)->(672,168)!action_hop~stop_down -- pass", 
    "Mantanoid; 9.tmx: (584,96)->(688,168)!action_hop~stop_down -- pass", 
    "Mantanoid; 9.tmx: (584,96)->(720,168)!action_hop~stop_down -- pass", 
    "Mantanoid; 9.tmx: (584,96)->(768,168)!action_hop~stop_down -- pass", 
    "Mantanoid; 9.tmx: (592,96)->(576,32)!action_approach~action_lock -- pass", 
    "Mantanoid; 9.tmx: (592,96)->(680,168)!action_hop~stop_down -- pass", 
    "Mantanoid; 9.tmx: (600,152)->(536,104)!action_hop~stop_down -- fail", 
    "Mantanoid; 9.tmx: (600,152)->(None,104)!action_approach~action_lock -- fail", 
    "Mantanoid; 9.tmx: (600,152)->(None,104)!action_jump~stop_down -- pass", 
    "Mantanoid; 9.tmx: (600,160)->(416,104)!action_hop~stop_down -- fail", 
    "Mantanoid; 9.tmx: (600,160)->(480,104)!action_hop~stop_down -- fail", 
    "Mantanoid; 9.tmx: (600,160)->(488,104)!action_hop~stop_down -- fail", 
    "Mantanoid; 9.tmx: (600,160)->(504,104)!action_hop~stop_down -- fail", 
    "Mantanoid; 9.tmx: (600,160)->(512,104)!action_hop~stop_down -- fail", 
    "Mantanoid; 9.tmx: (600,160)->(520,104)!action_hop~stop_down -- fail", 
    "Mantanoid; 9.tmx: (600,160)->(528,104)!action_hop~stop_down -- fail", 
    "Mantanoid; 9.tmx: (600,160)->(528,104)!action_jump~stop_down -- pass", 
    "Mantanoid; 9.tmx: (600,160)->(536,104)!action_hop~stop_down -- fail", 
    "Mantanoid; 9.tmx: (600,160)->(536,104)!action_jump~stop_down -- pass", 
    "Mantanoid; 9.tmx: (600,160)->(544,104)!action_hop~stop_down -- fail", 
    "Mantanoid; 9.tmx: (600,160)->(544,104)!action_jump~stop_down -- pass", 
    "Mantanoid; 9.tmx: (600,160)->(544,64)!action_approach~action_lock -- fail", 
    "Mantanoid; 9.tmx: (600,160)->(552,104)!action_hop~stop_down -- fail", 
    "Mantanoid; 9.tmx: (600,160)->(552,104)!action_jump~stop_down -- pass", 
    "Mantanoid; 9.tmx: (600,160)->(560,104)!action_hop~stop_down -- fail", 
    "Mantanoid; 9.tmx: (600,160)->(560,40)!action_hop~stop_down -- fail", 
    "Mantanoid; 9.tmx: (600,160)->(568,104)!action_hop~stop_down -- fail", 
    "Mantanoid; 9.tmx: (600,160)->(568,104)!action_jump~stop_down -- pass", 
    "Mantanoid; 9.tmx: (600,160)->(576,104)!action_hop~stop_down -- fail", 
    "Mantanoid; 9.tmx: (600,160)->(576,104)!action_jump~stop_down -- pass", 
    "Mantanoid; 9.tmx: (600,160)->(584,104)!action_hop~stop_down -- fail", 
    "Mantanoid; 9.tmx: (600,160)->(584,88)!action_hop~stop_down -- fail", 
    "Mantanoid; 9.tmx: (600,160)->(None,104)!action_approach~action_lock -- fail", 
    "Mantanoid; 9.tmx: (600,160)->(None,104)!action_jump~stop_down -- pass", 
    "Mantanoid; 9.tmx: (600,96)->(672,168)!action_hop~stop_down -- pass", 
    "Mantanoid; 9.tmx: (600,96)->(728,168)!action_hop~stop_down -- pass", 
    "Mantanoid; 9.tmx: (616,160)->(872,96)!action_approach~action_lock -- pass", 
    "Mantanoid; 9.tmx: (624,152)->(None,104)!action_approach~action_lock -- fail", 
    "Mantanoid; 9.tmx: (624,160)->(576,88)!action_approach~action_lock -- pass", 
    "Mantanoid; 9.tmx: (624,160)->(None,104)!action_approach~action_lock -- fail", 
    "Mantanoid; 9.tmx: (624,160)->(None,104)!action_jump~stop_down -- pass", 
    "Mantanoid; 9.tmx: (632,152)->(None,104)!action_approach~action_lock -- fail", 
    "Mantanoid; 9.tmx: (632,160)->(488,32)!action_approach~action_lock -- pass", 
    "Mantanoid; 9.tmx: (632,160)->(576,96)!action_approach~action_lock -- pass", 
    "Mantanoid; 9.tmx: (632,160)->(584,80)!action_approach~action_lock -- pass", 
    "Mantanoid; 9.tmx: (632,160)->(592,104)!action_approach~action_lock -- pass", 
    "Mantanoid; 9.tmx: (632,160)->(592,80)!action_approach~action_lock -- pass", 
    "Mantanoid; 9.tmx: (632,160)->(656,88)!action_approach~action_lock -- pass", 
    "Mantanoid; 9.tmx: (632,160)->(None,104)!action_approach~action_lock -- fail", 
    "Mantanoid; 9.tmx: (632,160)->(None,104)!action_jump~stop_down -- pass", 
    "Mantanoid; 9.tmx: (64,160)->(None,56)!action_approach~action_lock -- fail", 
    "Mantanoid; 9.tmx: (64,160)->(None,96)!action_approach~action_lock -- fail", 
    "Mantanoid; 9.tmx: (64,48)->(16,96)!action_hop~stop_down -- pass", 
    "Mantanoid; 9.tmx: (640,160)->(440,104)!action_approach~action_lock -- pass", 
    "Mantanoid; 9.tmx: (640,160)->(512,104)!action_approach~action_lock -- pass", 
    "Mantanoid; 9.tmx: (640,160)->(528,104)!action_approach~action_lock -- pass", 
    "Mantanoid; 9.tmx: (640,160)->(536,104)!action_approach~action_lock -- pass", 
    "Mantanoid; 9.tmx: (640,160)->(552,104)!action_approach~action_lock -- pass", 
    "Mantanoid; 9.tmx: (640,160)->(568,104)!action_approach~action_lock -- pass", 
    "Mantanoid; 9.tmx: (640,160)->(576,104)!action_approach~action_lock -- pass", 
    "Mantanoid; 9.tmx: (640,160)->(576,88)!action_approach~action_lock -- pass", 
    "Mantanoid; 9.tmx: (640,160)->(592,80)!action_approach~action_lock -- pass", 
    "Mantanoid; 9.tmx: (640,160)->(592,88)!action_approach~action_lock -- pass", 
    "Mantanoid; 9.tmx: (640,160)->(680,104)!action_approach~action_lock -- pass", 
    "Mantanoid; 9.tmx: (640,160)->(680,96)!action_approach~action_lock -- pass", 
    "Mantanoid; 9.tmx: (640,160)->(None,104)!action_approach~action_lock -- fail", 
    "Mantanoid; 9.tmx: (640,160)->(None,104)!action_hop~stop_down -- fail", 
    "Mantanoid; 9.tmx: (640,160)->(None,104)!action_jump~stop_down -- fail", 
    "Mantanoid; 9.tmx: (648,152)->(640,96)!action_approach~action_lock -- fail", 
    "Mantanoid; 9.tmx: (648,152)->(664,80)!action_approach~action_lock -- pass", 
    "Mantanoid; 9.tmx: (648,152)->(None,104)!action_approach~action_lock -- fail", 
    "Mantanoid; 9.tmx: (648,160)->(592,104)!action_approach~action_lock -- pass", 
    "Mantanoid; 9.tmx: (648,160)->(None,104)!action_approach~action_lock -- fail", 
    "Mantanoid; 9.tmx: (648,160)->(None,104)!action_hop~stop_down -- fail", 
    "Mantanoid; 9.tmx: (648,160)->(None,104)!action_jump~stop_down -- fail", 
    "Mantanoid; 9.tmx: (656,152)->(None,104)!action_approach~action_lock -- fail", 
    "Mantanoid; 9.tmx: (656,160)->(504,104)!action_approach~action_lock -- pass", 
    "Mantanoid; 9.tmx: (656,160)->(512,104)!action_approach~action_lock -- pass", 
    "Mantanoid; 9.tmx: (656,160)->(520,104)!action_approach~action_lock -- pass", 
    "Mantanoid; 9.tmx: (656,160)->(528,96)!action_approach~action_lock -- pass", 
    "Mantanoid; 9.tmx: (656,160)->(536,104)!action_approach~action_lock -- pass", 
    "Mantanoid; 9.tmx: (656,160)->(544,104)!action_approach~action_lock -- pass", 
    "Mantanoid; 9.tmx: (656,160)->(552,104)!action_approach~action_lock -- pass", 
    "Mantanoid; 9.tmx: (656,160)->(560,104)!action_approach~action_lock -- pass", 
    "Mantanoid; 9.tmx: (656,160)->(568,96)!action_approach~action_lock -- pass", 
    "Mantanoid; 9.tmx: (656,160)->(584,80)!action_approach~action_lock -- pass", 
    "Mantanoid; 9.tmx: (656,160)->(592,96)!action_approach~action_lock -- pass", 
    "Mantanoid; 9.tmx: (656,160)->(688,80)!action_approach~action_lock -- pass", 
    "Mantanoid; 9.tmx: (656,160)->(696,104)!action_approach~action_lock -- pass", 
    "Mantanoid; 9.tmx: (656,160)->(696,96)!action_approach~action_lock -- pass", 
    "Mantanoid; 9.tmx: (656,160)->(856,104)!action_approach~action_lock -- pass", 
    "Mantanoid; 9.tmx: (656,160)->(None,104)!action_approach~action_lock -- fail", 
    "Mantanoid; 9.tmx: (656,160)->(None,104)!action_hop~stop_down -- fail", 
    "Mantanoid; 9.tmx: (656,160)->(None,104)!action_jump~stop_down -- fail", 
    "Mantanoid; 9.tmx: (664,152)->(720,88)!action_approach~action_lock -- pass", 
    "Mantanoid; 9.tmx: (664,160)->(440,104)!action_approach~action_lock -- pass", 
    "Mantanoid; 9.tmx: (664,160)->(512,104)!action_approach~action_lock -- pass", 
    "Mantanoid; 9.tmx: (664,160)->(528,104)!action_approach~action_lock -- pass", 
    "Mantanoid; 9.tmx: (664,160)->(568,104)!action_approach~action_lock -- pass", 
    "Mantanoid; 9.tmx: (664,160)->(576,104)!action_approach~action_lock -- pass", 
    "Mantanoid; 9.tmx: (664,160)->(576,96)!action_approach~action_lock -- pass", 
    "Mantanoid; 9.tmx: (664,160)->(584,80)!action_approach~action_lock -- pass", 
    "Mantanoid; 9.tmx: (664,160)->(592,104)!action_approach~action_lock -- pass", 
    "Mantanoid; 9.tmx: (664,160)->(616,88)!action_approach~action_lock -- pass", 
    "Mantanoid; 9.tmx: (664,160)->(680,80)!action_approach~action_lock -- pass", 
    "Mantanoid; 9.tmx: (664,160)->(688,88)!action_approach~action_lock -- pass", 
    "Mantanoid; 9.tmx: (664,160)->(752,88)!action_approach~action_lock -- pass", 
    "Mantanoid; 9.tmx: (664,160)->(None,104)!action_approach~action_lock -- fail", 
    "Mantanoid; 9.tmx: (664,160)->(None,104)!action_hop~stop_down -- fail", 
    "Mantanoid; 9.tmx: (664,160)->(None,104)!action_jump~stop_down -- fail", 
    "Mantanoid; 9.tmx: (672,152)->(None,104)!action_approach~action_lock -- fail", 
    "Mantanoid; 9.tmx: (672,160)->(480,104)!action_approach~action_lock -- pass", 
    "Mantanoid; 9.tmx: (672,160)->(680,88)!action_approach~action_lock -- fail", 
    "Mantanoid; 9.tmx: (672,160)->(688,96)!action_approach~action_lock -- pass", 
    "Mantanoid; 9.tmx: (672,160)->(None,104)!action_approach~action_lock -- fail", 
    "Mantanoid; 9.tmx: (672,160)->(None,104)!action_hop~stop_down -- fail", 
    "Mantanoid; 9.tmx: (672,160)->(None,104)!action_jump~stop_down -- fail", 
    "Mantanoid; 9.tmx: (680,152)->(744,96)!action_approach~action_lock -- pass", 
    "Mantanoid; 9.tmx: (680,152)->(None,104)!action_approach~action_lock -- fail", 
    "Mantanoid; 9.tmx: (680,160)->(544,104)!action_approach~action_lock -- pass", 
    "Mantanoid; 9.tmx: (680,160)->(552,104)!action_approach~action_lock -- pass", 
    "Mantanoid; 9.tmx: (680,160)->(552,88)!action_approach~action_lock -- pass", 
    "Mantanoid; 9.tmx: (680,160)->(560,104)!action_approach~action_lock -- pass", 
    "Mantanoid; 9.tmx: (680,160)->(560,88)!action_approach~action_lock -- pass", 
    "Mantanoid; 9.tmx: (680,160)->(560,96)!action_approach~action_lock -- pass", 
    "Mantanoid; 9.tmx: (680,160)->(576,80)!action_approach~action_lock -- pass", 
    "Mantanoid; 9.tmx: (680,160)->(592,80)!action_approach~action_lock -- pass", 
    "Mantanoid; 9.tmx: (680,160)->(592,88)!action_approach~action_lock -- pass", 
    "Mantanoid; 9.tmx: (680,160)->(616,88)!action_approach~action_lock -- pass", 
    "Mantanoid; 9.tmx: (680,160)->(696,96)!action_approach~action_lock -- pass", 
    "Mantanoid; 9.tmx: (680,160)->(704,80)!action_approach~action_lock -- pass", 
    "Mantanoid; 9.tmx: (680,160)->(704,96)!action_approach~action_lock -- pass", 
    "Mantanoid; 9.tmx: (680,160)->(712,80)!action_approach~action_lock -- pass", 
    "Mantanoid; 9.tmx: (680,160)->(728,88)!action_approach~action_lock -- pass", 
    "Mantanoid; 9.tmx: (680,160)->(784,96)!action_approach~action_lock -- pass", 
    "Mantanoid; 9.tmx: (680,160)->(848,88)!action_approach~action_lock -- pass", 
    "Mantanoid; 9.tmx: (680,160)->(None,104)!action_approach~action_lock -- fail", 
    "Mantanoid; 9.tmx: (680,160)->(None,104)!action_hop~stop_down -- fail", 
    "Mantanoid; 9.tmx: (680,160)->(None,104)!action_jump~stop_down -- fail", 
    "Mantanoid; 9.tmx: (688,160)->(592,96)!action_approach~action_lock -- pass", 
    "Mantanoid; 9.tmx: (688,160)->(728,104)!action_approach~action_lock -- pass", 
    "Mantanoid; 9.tmx: (688,160)->(800,104)!action_approach~action_lock -- pass", 
    "Mantanoid; 9.tmx: (688,160)->(None,104)!action_approach~action_lock -- fail", 
    "Mantanoid; 9.tmx: (688,160)->(None,104)!action_jump~stop_down -- fail", 
    "Mantanoid; 9.tmx: (696,152)->(None,104)!action_approach~action_lock -- fail", 
    "Mantanoid; 9.tmx: (696,160)->(592,88)!action_approach~action_lock -- pass", 
    "Mantanoid; 9.tmx: (696,160)->(None,104)!action_approach~action_lock -- fail", 
    "Mantanoid; 9.tmx: (704,160)->(568,104)!action_approach~action_lock -- pass", 
    "Mantanoid; 9.tmx: (704,160)->(584,88)!action_approach~action_lock -- pass", 
    "Mantanoid; 9.tmx: (704,160)->(592,80)!action_approach~action_lock -- pass", 
    "Mantanoid; 9.tmx: (704,160)->(600,88)!action_approach~action_lock -- pass", 
    "Mantanoid; 9.tmx: (704,160)->(600,96)!action_approach~action_lock -- pass", 
    "Mantanoid; 9.tmx: (704,160)->(608,104)!action_approach~action_lock -- pass", 
    "Mantanoid; 9.tmx: (704,160)->(608,80)!action_approach~action_lock -- pass", 
    "Mantanoid; 9.tmx: (704,160)->(608,96)!action_approach~action_lock -- pass", 
    "Mantanoid; 9.tmx: (704,160)->(736,80)!action_approach~action_lock -- pass", 
    "Mantanoid; 9.tmx: (704,160)->(744,88)!action_approach~action_lock -- pass", 
    "Mantanoid; 9.tmx: (704,160)->(752,104)!action_approach~action_lock -- pass", 
    "Mantanoid; 9.tmx: (704,160)->(None,104)!action_approach~action_lock -- fail", 
    "Mantanoid; 9.tmx: (704,160)->(None,104)!action_hop~stop_down -- fail", 
    "Mantanoid; 9.tmx: (704,160)->(None,104)!action_jump~stop_down -- fail", 
    "Mantanoid; 9.tmx: (712,152)->(696,104)!action_approach~action_lock -- pass", 
    "Mantanoid; 9.tmx: (712,160)->(736,80)!action_approach~action_lock -- pass", 
    "Mantanoid; 9.tmx: (712,160)->(760,96)!action_approach~action_lock -- pass", 
    "Mantanoid; 9.tmx: (712,160)->(None,104)!action_approach~action_lock -- fail", 
    "Mantanoid; 9.tmx: (712,160)->(None,104)!action_hop~stop_down -- fail", 
    "Mantanoid; 9.tmx: (712,160)->(None,104)!action_jump~stop_down -- fail", 
    "Mantanoid; 9.tmx: (72,160)->(104,56)!action_approach~action_lock -- pass", 
    "Mantanoid; 9.tmx: (72,160)->(144,56)!action_approach~action_lock -- pass", 
    "Mantanoid; 9.tmx: (72,160)->(208,56)!action_approach~action_lock -- pass", 
    "Mantanoid; 9.tmx: (72,160)->(256,56)!action_approach~action_lock -- pass", 
    "Mantanoid; 9.tmx: (72,160)->(88,56)!action_approach~action_lock -- pass", 
    "Mantanoid; 9.tmx: (72,160)->(96,56)!action_approach~action_lock -- pass", 
    "Mantanoid; 9.tmx: (72,160)->(None,56)!action_approach~action_lock -- fail", 
    "Mantanoid; 9.tmx: (72,160)->(None,56)!action_hop~stop_down -- fail", 
    "Mantanoid; 9.tmx: (72,160)->(None,56)!action_jump~stop_down -- fail", 
    "Mantanoid; 9.tmx: (72,160)->(None,96)!action_approach~action_lock -- fail", 
    "Mantanoid; 9.tmx: (72,160)->(None,96)!action_jump~stop_down -- fail", 
    "Mantanoid; 9.tmx: (720,152)->(600,88)!action_approach~action_lock -- pass", 
    "Mantanoid; 9.tmx: (720,160)->(None,104)!action_approach~action_lock -- fail", 
    "Mantanoid; 9.tmx: (720,160)->(None,104)!action_jump~stop_down -- fail", 
    "Mantanoid; 9.tmx: (728,160)->(584,88)!action_approach~action_lock -- pass", 
    "Mantanoid; 9.tmx: (728,160)->(592,104)!action_approach~action_lock -- pass", 
    "Mantanoid; 9.tmx: (728,160)->(616,80)!action_approach~action_lock -- pass", 
    "Mantanoid; 9.tmx: (728,160)->(728,88)!action_approach~action_lock -- fail", 
    "Mantanoid; 9.tmx: (728,160)->(728,96)!action_approach~action_lock -- fail", 
    "Mantanoid; 9.tmx: (728,160)->(768,88)!action_approach~action_lock -- pass", 
    "Mantanoid; 9.tmx: (728,160)->(None,104)!action_approach~action_lock -- fail", 
    "Mantanoid; 9.tmx: (728,160)->(None,104)!action_hop~stop_down -- fail", 
    "Mantanoid; 9.tmx: (728,160)->(None,104)!action_jump~stop_down -- fail", 
    "Mantanoid; 9.tmx: (736,160)->(808,104)!action_approach~action_lock -- pass", 
    "Mantanoid; 9.tmx: (736,160)->(None,104)!action_approach~action_lock -- fail", 
    "Mantanoid; 9.tmx: (736,160)->(None,104)!action_jump~stop_down -- fail", 
    "Mantanoid; 9.tmx: (744,160)->(616,88)!action_approach~action_lock -- pass", 
    "Mantanoid; 9.tmx: (744,160)->(632,104)!action_approach~action_lock -- pass", 
    "Mantanoid; 9.tmx: (744,160)->(760,88)!action_approach~action_lock -- pass", 
    "Mantanoid; 9.tmx: (744,160)->(768,88)!action_approach~action_lock -- pass", 
    "Mantanoid; 9.tmx: (744,160)->(800,96)!action_approach~action_lock -- pass", 
    "Mantanoid; 9.tmx: (744,160)->(None,104)!action_approach~action_lock -- fail", 
    "Mantanoid; 9.tmx: (752,152)->(752,104)!action_approach~action_lock -- fail", 
    "Mantanoid; 9.tmx: (752,160)->(616,80)!action_approach~action_lock -- pass", 
    "Mantanoid; 9.tmx: (752,160)->(992,88)!action_approach~action_lock -- pass", 
    "Mantanoid; 9.tmx: (752,160)->(None,104)!action_approach~action_lock -- fail", 
    "Mantanoid; 9.tmx: (752,160)->(None,104)!action_jump~stop_down -- fail", 
    "Mantanoid; 9.tmx: (760,160)->(832,88)!action_approach~action_lock -- pass", 
    "Mantanoid; 9.tmx: (760,160)->(None,104)!action_approach~action_lock -- fail", 
    "Mantanoid; 9.tmx: (768,160)->(1016,104)!action_approach~action_lock -- pass", 
    "Mantanoid; 9.tmx: (768,160)->(None,104)!action_approach~action_lock -- fail", 
    "Mantanoid; 9.tmx: (768,160)->(None,104)!action_jump~stop_down -- fail", 
    "Mantanoid; 9.tmx: (776,160)->(None,104)!action_approach~action_lock -- fail", 
    "Mantanoid; 9.tmx: (776,160)->(None,104)!action_jump~stop_down -- fail", 
    "Mantanoid; 9.tmx: (784,152)->(816,88)!action_approach~action_lock -- pass", 
    "Mantanoid; 9.tmx: (792,160)->(576,80)!action_approach~action_lock -- pass", 
    "Mantanoid; 9.tmx: (792,160)->(None,104)!action_approach~action_lock -- fail", 
    "Mantanoid; 9.tmx: (792,160)->(None,104)!action_jump~stop_down -- fail", 
    "Mantanoid; 9.tmx: (80,160)->(168,56)!action_approach~action_lock -- pass", 
    "Mantanoid; 9.tmx: (80,160)->(32,96)!action_approach~action_lock -- pass", 
    "Mantanoid; 9.tmx: (80,160)->(None,56)!action_approach~action_lock -- fail", 
    "Mantanoid; 9.tmx: (80,160)->(None,56)!action_hop~stop_down -- fail", 
    "Mantanoid; 9.tmx: (80,160)->(None,56)!action_jump~stop_down -- fail", 
    "Mantanoid; 9.tmx: (80,160)->(None,96)!action_approach~action_lock -- fail", 
    "Mantanoid; 9.tmx: (80,160)->(None,96)!action_hop~stop_down -- fail", 
    "Mantanoid; 9.tmx: (80,160)->(None,96)!action_jump~stop_down -- fail", 
    "Mantanoid; 9.tmx: (816,160)->(576,80)!action_approach~action_lock -- pass", 
    "Mantanoid; 9.tmx: (816,160)->(None,104)!action_approach~action_lock -- fail", 
    "Mantanoid; 9.tmx: (824,160)->(976,88)!action_approach~action_lock -- pass", 
    "Mantanoid; 9.tmx: (832,152)->(1000,96)!action_approach~action_lock -- pass", 
    "Mantanoid; 9.tmx: (840,160)->(None,104)!action_approach~action_lock -- fail", 
    "Mantanoid; 9.tmx: (848,152)->(856,88)!action_approach~action_lock -- fail", 
    "Mantanoid; 9.tmx: (856,152)->(1016,88)!action_approach~action_lock -- pass", 
    "Mantanoid; 9.tmx: (872,160)->(936,96)!action_approach~action_lock -- pass", 
    "Mantanoid; 9.tmx: (88,160)->(104,56)!action_approach~action_lock -- fail", 
    "Mantanoid; 9.tmx: (88,160)->(112,56)!action_approach~action_lock -- pass", 
    "Mantanoid; 9.tmx: (88,160)->(None,56)!action_approach~action_lock -- fail", 
    "Mantanoid; 9.tmx: (88,160)->(None,56)!action_hop~stop_down -- fail", 
    "Mantanoid; 9.tmx: (88,160)->(None,56)!action_jump~stop_down -- fail", 
    "Mantanoid; 9.tmx: (88,160)->(None,96)!action_approach~action_lock -- fail", 
    "Mantanoid; 9.tmx: (88,160)->(None,96)!action_jump~stop_down -- fail", 
    "Mantanoid; 9.tmx: (88,48)->(16,96)!action_hop~stop_down -- pass", 
    "Mantanoid; 9.tmx: (880,160)->(720,104)!action_approach~action_lock -- pass", 
    "Mantanoid; 9.tmx: (904,160)->(768,88)!action_approach~action_lock -- pass", 
    "Mantanoid; 9.tmx: (904,160)->(944,96)!action_approach~action_lock -- pass", 
    "Mantanoid; 9.tmx: (912,160)->(1016,88)!action_approach~action_lock -- pass", 
    "Mantanoid; 9.tmx: (928,160)->(952,88)!action_approach~action_lock -- pass", 
    "Mantanoid; 9.tmx: (936,160)->(1016,104)!action_approach~action_lock -- pass", 
    "Mantanoid; 9.tmx: (96,160)->(104,56)!action_approach~action_lock -- fail", 
    "Mantanoid; 9.tmx: (96,160)->(112,56)!action_approach~action_lock -- pass", 
    "Mantanoid; 9.tmx: (96,160)->(208,56)!action_approach~action_lock -- pass", 
    "Mantanoid; 9.tmx: (96,160)->(232,56)!action_approach~action_lock -- pass", 
    "Mantanoid; 9.tmx: (96,160)->(72,104)!action_approach~action_lock -- pass", 
    "Mantanoid; 9.tmx: (96,160)->(88,56)!action_approach~action_lock -- pass", 
    "Mantanoid; 9.tmx: (96,160)->(96,56)!action_approach~action_lock -- fail", 
    "Mantanoid; 9.tmx: (96,160)->(None,56)!action_approach~action_lock -- fail", 
    "Mantanoid; 9.tmx: (96,160)->(None,56)!action_hop~stop_down -- fail", 
    "Mantanoid; 9.tmx: (96,160)->(None,56)!action_jump~stop_down -- fail", 
    "Mantanoid; 9.tmx: (96,160)->(None,96)!action_approach~action_lock -- fail", 
    "Mantanoid; 9.tmx: (96,160)->(None,96)!action_jump~stop_down -- fail", 
    "Mantanoid; 9.tmx: (960,160)->(1008,96)!action_approach~action_lock -- pass"
]